@startuml

    class LeaderBoard [[LeaderBoard.html]] {
        +size(): int
        +getScore(int): int
        +getName(int): String
        +addScore(String, TetroScore): void
        +clear(): void
    }


    center footer UMLDoclet 1.1.2, PlantUML 1.2018.12
@enduml
