@startuml

    class TetroScore [[TetroScore.html]] {
        +line(int): void
        +tetris(): void
        +backToBack(int): void
        +reset(): void
        +getScore(): int
    }


    center footer UMLDoclet 1.1.2, PlantUML 1.2018.12
@enduml
